<?xml version="1.0" encoding="utf-8"?>
<!-- Generator: Adobe Illustrator 16.0.0, SVG Export Plug-In . SVG Version: 6.00 Build 0)  -->
<!DOCTYPE svg PUBLIC "-//W3C//DTD SVG 1.1//EN" "http://www.w3.org/Graphics/SVG/1.1/DTD/svg11.dtd">
<svg version="1.1" id="Capa_1" xmlns="http://www.w3.org/2000/svg" xmlns:xlink="http://www.w3.org/1999/xlink" x="0px" y="0px"
	 width="60px" height="24px" viewBox="0 0 60 24" enable-background="new 0 0 60 24" xml:space="preserve">
<g>
	<rect x="8.26" y="19.483" fill="#FFFFFF" width="0.381" height="0.417"/>
	<rect x="6.963" y="19.483" fill="#FFFFFF" width="0.381" height="0.417"/>
	<rect x="9.559" y="19.483" fill="#FFFFFF" width="0.38" height="0.417"/>
	<rect x="10.856" y="19.483" fill="#FFFFFF" width="0.38" height="0.417"/>
	<rect x="4.368" y="19.483" fill="#FFFFFF" width="0.381" height="0.417"/>
	<rect x="3.069" y="19.483" fill="#FFFFFF" width="0.381" height="0.417"/>
	<rect x="5.665" y="19.483" fill="#FFFFFF" width="0.381" height="0.417"/>
	<rect x="12.154" y="19.483" fill="#FFFFFF" width="0.381" height="0.417"/>
	<rect x="1.772" y="19.483" fill="#FFFFFF" width="0.381" height="0.417"/>
	<path fill="#FFFFFF" d="M4.375,12.903c0.215,0.118,1.416,0.705,2.316,1.223s3.111,2,4.097,2.754
		c0.986,0.753,1.48,0.306,1.673,0.141c0.192-0.164,0.922-0.988,1.243-1.364c0.322-0.377,1.438-1.177,1.609-1.459
		c0.172-0.282,0.129-0.564-0.279-0.564s-0.386,0.376-1.866,0.823c-1.48,0.446-2.788,0.071-3.411-0.022
		c-0.622-0.095-4.075-1.766-4.654-2.071c-0.579-0.306-0.772-0.33-0.922-0.023C4.032,12.645,4.161,12.786,4.375,12.903z"/>
	<path fill="#FFFFFF" d="M9.727,12.95c3.006,0,5.458-2.219,5.458-4.94c0-2.721-2.452-4.94-5.458-4.94
		c-3.007,0-5.459,2.219-5.459,4.94C4.268,10.731,6.72,12.95,9.727,12.95z M6.756,7.085c0-1.772,1.323-3.224,2.938-3.224
		c1.616,0,2.938,1.451,2.938,3.224v1.717c0,1.773-1.322,3.223-2.938,3.223c-1.616,0-2.938-1.45-2.938-3.223V7.085z"/>
	<path fill="#FFFFFF" d="M1.529,1.487v17.312h16.476V1.487H1.529z M17.477,18.222H2.057V2.066h15.42V18.222z"/>
	<rect x="13.452" y="19.483" fill="#FFFFFF" width="0.381" height="0.417"/>
	<rect x="16.048" y="19.483" fill="#FFFFFF" width="0.38" height="0.417"/>
	<rect x="14.75" y="19.483" fill="#FFFFFF" width="0.381" height="0.417"/>
	<rect x="17.345" y="19.483" fill="#FFFFFF" width="0.381" height="0.417"/>
</g>
<g>
	<path fill="#FFFFFF" d="M29.776,15.015c-0.406,0.261-0.852,0.446-1.567,0.435c-0.715-0.012-1.559-0.262-2.078-0.551
		c-0.52-0.29-0.941-0.578-1.125-0.826c1.822-0.433,3.011-2.759,3.011-5.281c0-2.797-1.433-5.353-3.626-5.353
		s-3.667,2.841-3.61,5.353c0.058,2.5,1.431,5.323,3.577,5.351c0.275,0.377,0.75,1.21,1.602,1.69
		c0.851,0.479,1.541,0.839,2.576,0.719c1.035-0.119,1.645-0.754,1.965-1.132c0.319-0.376,0.465-0.638,0.232-0.869
		C30.502,14.318,30.182,14.753,29.776,15.015z M21.962,8.763c0-2.784,0.955-4.686,2.433-4.686c1.479,0,2.444,1.805,2.444,4.686
		c0,2.88-0.966,4.685-2.444,4.685C22.917,13.447,21.962,11.546,21.962,8.763z"/>
	<path fill="#FFFFFF" d="M33.585,12.878c-0.313-0.064-0.323-0.166-0.341-0.592c-0.019-0.426,0-5.255,0-5.255
		s-0.036-0.349-0.367-0.386c-0.33-0.037-0.717,0-0.883,0c-0.165,0-0.33,0.128-0.294,0.275s0.22,0.184,0.405,0.313
		c0.184,0.128,0.237,0.294,0.237,0.551c0,0.257,0,3.693,0,3.693s0.019,0.68-0.273,1.121c-0.295,0.44-0.604,0.606-1.048,0.606
		s-0.974-0.349-0.992-1.323c-0.018-0.974-0.074-1.286-0.074-1.286V7.049c0,0,0-0.383-0.33-0.395c-0.226-0.009-0.631-0.01-0.961,0
		c-0.163,0.005-0.296,0.073-0.29,0.192c0.019,0.35,0.147,0.239,0.275,0.294c0.129,0.056,0.405-0.055,0.405,0.423
		c0,0.478,0,4.005,0,4.005s-0.018,0.938,0.368,1.599c0.386,0.661,0.956,0.864,1.416,0.864c0.459,0,0.862-0.386,0.955-0.515
		c0.093-0.13,0.507-0.586,0.545-0.146c0.036,0.441,0.005,0.567,0.227,0.642c0.222,0.073,0.167-0.132,0.449-0.321
		c0.279-0.189,0.414-0.305,0.579-0.341C33.758,13.314,33.901,12.943,33.585,12.878z"/>
	<path fill="#FFFFFF" d="M37.761,4.377c0,0,0.588-0.565,0.543-0.848c-0.048-0.283-0.307-0.519-0.448-0.425
		c-0.143,0.095-0.777,0.967-0.967,1.272C36.7,4.684,35.97,5.744,35.97,5.744l0.283,0.166L37.761,4.377z"/>
	<path fill="#FFFFFF" d="M43.311,4.778c0.305,0,0.554-0.376,0.554-0.836c0-0.461-0.249-0.837-0.554-0.837s-0.554,0.376-0.554,0.837
		C42.757,4.402,43.006,4.778,43.311,4.778z"/>
	<path fill="#FFFFFF" d="M47.762,12.827c-0.224,0.247-0.494,0.404-0.741,0.382c-0.245-0.022-0.448-0.18-0.448-0.898
		c0-0.718,0-4.962,0-4.962h0.877c0,0,0.431-0.027,0.405-0.406c-0.023-0.379-0.271-0.29-0.429-0.312s-0.832,0-0.832,0V5.507
		c0,0-0.156-0.539-0.381-0.134c-0.224,0.404-0.291,0.583-0.471,0.875c-0.18,0.292-0.628,0.584-0.652,0.854
		c-0.021,0.27,0.158,0.247,0.271,0.247c0.112,0,0.225,0,0.225,0v4.985c0,0-0.068,1.011,0.471,1.369c0.539,0.36,1.012,0.405,1.481,0
		c0.473-0.403,0.54-0.695,0.54-0.853S47.987,12.581,47.762,12.827z"/>
	<path fill="#FFFFFF" d="M52.636,12.917c-0.081,0.132-0.41,0.213-0.442-0.214c-0.069-0.897,0.021-4.523-0.069-5.212
		c0,0-0.161-1.04-0.95-1.122c-0.786-0.083-1.427,0.164-1.917,0.771c-0.492,0.607-0.642,0.87-0.707,1.05s-0.247,0.558,0.114,0.755
		s0.642-0.312,0.772-0.624s0.294-0.952,0.459-1.083c0.164-0.131,0.395-0.442,0.936-0.377c0.541,0.066,0.378,0.854,0.378,1.034
		c0,0.181,0,1.608,0,1.608s-1.001,0.739-1.313,0.952c-0.313,0.214-0.936,0.788-1.231,1.378c-0.296,0.591-0.361,1.542,0.164,1.887
		c0.526,0.344,0.951,0.41,1.576-0.033c0.623-0.442,0.737-0.787,0.936-0.41c0.195,0.378,0.195,0.69,0.639,0.673
		c0.443-0.017,0.672-0.344,0.772-0.476c0.098-0.131,0.392-0.541,0.245-0.689C52.849,12.638,52.718,12.785,52.636,12.917z
		 M51.207,11.473c0,0.295-0.049,0.624-0.164,0.935c-0.114,0.312-0.229,0.607-0.854,0.721c-0.622,0.116-0.77-0.476-0.737-0.967
		c0.033-0.492,0.113-0.737,0.591-1.197c0.368-0.356,0.653-0.55,0.926-0.737c0.107-0.065,0.243-0.016,0.238,0.103
		C51.207,10.679,51.207,11.27,51.207,11.473z"/>
	<path fill="#FFFFFF" d="M56.982,11.565c-0.017-0.411-0.131-1.298-1.362-2.087c-1.233-0.789-1.217-1.002-1.2-1.709
		c0.016-0.706,0.493-0.969,0.92-0.953c0.428,0.017,0.756,0.427,0.805,0.739c0.05,0.312,0.196,0.625,0.378,0.625
		c0.18,0,0.147-0.592,0.165-0.986c0.017-0.394-0.347-0.656-0.608-0.772c-0.263-0.115-0.985-0.181-1.659,0.263
		c-0.674,0.443-0.805,1.134-0.838,1.643c-0.032,0.509,0.065,0.871,0.46,1.396c0.394,0.526,1.413,0.969,1.79,1.364
		c0.378,0.395,0.411,1.544,0.082,2.004c-0.328,0.46-0.854,0.493-1.313,0.411c-0.462-0.083-0.608-1.2-0.658-1.544
		c-0.051-0.345-0.148-0.559-0.279-0.559c-0.133,0-0.214,0.213-0.23,0.378c-0.017,0.164-0.017,0.575-0.017,1.084
		c0,0.509,0.1,0.756,0.723,1.002c0.625,0.247,1.315,0.279,2.038-0.279S56.998,11.976,56.982,11.565z"/>
	<path fill="#FFFFFF" d="M38.507,12.917c-0.082,0.132-0.41,0.213-0.443-0.214c-0.068-0.897,0.022-4.523-0.068-5.212
		c0,0-0.16-1.04-0.948-1.122c-0.788-0.083-1.428,0.164-1.92,0.771s-0.641,0.87-0.706,1.05s-0.245,0.558,0.114,0.755
		c0.361,0.197,0.641-0.312,0.771-0.624s0.297-0.952,0.46-1.083c0.165-0.131,0.394-0.442,0.936-0.377
		c0.541,0.066,0.377,0.854,0.377,1.034c0,0.181,0,1.608,0,1.608s-1,0.739-1.313,0.952c-0.311,0.214-0.936,0.788-1.231,1.378
		c-0.294,0.591-0.359,1.542,0.165,1.887c0.525,0.345,0.952,0.41,1.575-0.033c0.622-0.442,0.738-0.787,0.935-0.41
		c0.196,0.378,0.196,0.69,0.642,0.673c0.443-0.017,0.672-0.344,0.77-0.476c0.099-0.131,0.395-0.541,0.247-0.689
		C38.72,12.638,38.589,12.785,38.507,12.917z M37.079,11.473c0,0.295-0.049,0.624-0.163,0.935c-0.116,0.312-0.23,0.607-0.854,0.721
		c-0.625,0.116-0.771-0.476-0.739-0.967c0.033-0.492,0.114-0.737,0.592-1.197c0.477-0.461,0.814-0.65,1.164-0.903
		C37.079,10.062,37.079,11.178,37.079,11.473z"/>
	<path fill="#FFFFFF" d="M44.037,13.18c-0.198-0.091-0.198-0.335-0.198-0.335s0-5.796,0-5.949s-0.015-0.44-0.182-0.47
		c-0.167-0.03-0.229,0.151-0.365,0.333c-0.136,0.182-0.317,0.303-0.606,0.517c-0.288,0.212-0.441,0.227-0.379,0.44
		c0.06,0.212,0.152,0.122,0.379,0.197c0.228,0.076,0.167,0.273,0.167,0.273s0,4.128,0,4.326s-0.045,0.563-0.167,0.653
		c-0.121,0.091-0.561,0.06-0.561,0.364c0,0.303,0.439,0.227,0.666,0.196c0.229-0.029,0.532-0.061,0.759-0.061
		c0.228,0,0.456,0.106,0.669,0.106c0.212,0,0.317-0.229,0.317-0.318C44.536,13.361,44.233,13.271,44.037,13.18z"/>
	<path fill="#FFFFFF" d="M41.264,13.18c-0.198-0.091-0.198-0.335-0.198-0.335s0-9.503,0-9.655c0-0.151,0.044-0.437-0.182-0.467
		c-0.227-0.03-0.311,0.201-0.564,0.378c-0.241,0.169-0.866,0.063-0.797,0.49c0.04,0.261,0.161,0.156,0.391,0.23
		c0.227,0.076,0.167,0.271,0.167,0.271s0,8.224,0,8.419s-0.046,0.562-0.167,0.653c-0.122,0.091-0.562,0.06-0.562,0.364
		c0,0.303,0.439,0.227,0.668,0.195c0.228-0.028,0.53-0.06,0.758-0.06c0.227,0,0.456,0.106,0.668,0.106
		c0.213,0,0.318-0.229,0.318-0.318C41.764,13.361,41.46,13.271,41.264,13.18z"/>
</g>
<g>
	<path fill="#FFFFFF" d="M21.422,17.968c0,0.171,0.023,0.318,0.066,0.444c0.044,0.126,0.102,0.23,0.173,0.312
		c0.072,0.083,0.154,0.145,0.245,0.185c0.091,0.041,0.183,0.061,0.278,0.061c0.097,0,0.185-0.017,0.264-0.053
		c0.079-0.035,0.148-0.081,0.206-0.14c0.058-0.057,0.105-0.124,0.144-0.198c0.037-0.075,0.063-0.151,0.079-0.229h0.243
		c-0.023,0.115-0.059,0.224-0.11,0.324c-0.051,0.1-0.116,0.188-0.195,0.263c-0.078,0.075-0.171,0.134-0.276,0.177
		c-0.105,0.044-0.225,0.065-0.355,0.065c-0.153,0-0.291-0.028-0.414-0.083s-0.229-0.135-0.316-0.238
		c-0.086-0.104-0.153-0.231-0.2-0.383c-0.047-0.149-0.071-0.319-0.071-0.51c0-0.098,0.01-0.194,0.03-0.289s0.049-0.186,0.088-0.271
		s0.087-0.163,0.145-0.235s0.123-0.134,0.196-0.187c0.073-0.053,0.155-0.095,0.246-0.124c0.09-0.029,0.188-0.044,0.293-0.044
		c0.134,0,0.251,0.018,0.356,0.054c0.104,0.034,0.195,0.083,0.272,0.146c0.078,0.063,0.144,0.138,0.195,0.225
		c0.052,0.086,0.093,0.181,0.122,0.282h-0.252c-0.058-0.167-0.144-0.291-0.256-0.373c-0.113-0.082-0.259-0.123-0.437-0.123
		c-0.111,0-0.213,0.025-0.307,0.077c-0.093,0.051-0.173,0.118-0.239,0.205c-0.067,0.086-0.119,0.186-0.157,0.3
		C21.441,17.723,21.422,17.842,21.422,17.968z"/>
	<path fill="#FFFFFF" d="M23.462,18.313c0-0.114,0.017-0.223,0.048-0.322c0.032-0.102,0.079-0.19,0.14-0.267
		c0.062-0.075,0.138-0.134,0.228-0.179c0.091-0.042,0.194-0.064,0.311-0.064c0.117,0,0.221,0.022,0.313,0.064
		c0.092,0.045,0.168,0.104,0.229,0.179c0.063,0.076,0.109,0.165,0.143,0.267c0.033,0.1,0.048,0.208,0.048,0.322
		s-0.016,0.222-0.048,0.323c-0.034,0.101-0.08,0.188-0.143,0.263c-0.062,0.074-0.138,0.134-0.229,0.178s-0.195,0.064-0.313,0.064
		c-0.116,0-0.22-0.021-0.311-0.064c-0.09-0.044-0.166-0.104-0.228-0.178c-0.061-0.074-0.108-0.162-0.14-0.263
		C23.479,18.535,23.462,18.428,23.462,18.313z M23.697,18.313c0,0.084,0.011,0.165,0.034,0.241c0.022,0.075,0.055,0.141,0.098,0.196
		c0.042,0.057,0.094,0.101,0.155,0.133c0.061,0.032,0.129,0.05,0.204,0.05s0.145-0.018,0.205-0.05
		c0.062-0.033,0.113-0.077,0.155-0.133c0.043-0.056,0.076-0.121,0.098-0.196c0.023-0.076,0.036-0.157,0.036-0.241
		c0-0.085-0.012-0.165-0.036-0.24c-0.022-0.077-0.055-0.143-0.098-0.199c-0.042-0.058-0.094-0.102-0.155-0.135
		c-0.061-0.032-0.13-0.049-0.205-0.049s-0.144,0.017-0.204,0.049c-0.061,0.033-0.113,0.077-0.155,0.135
		c-0.043,0.057-0.076,0.122-0.098,0.199C23.708,18.148,23.697,18.229,23.697,18.313z"/>
	<path fill="#FFFFFF" d="M25.266,17.51h0.236v0.252c0.035-0.051,0.072-0.094,0.113-0.129c0.042-0.035,0.084-0.063,0.128-0.087
		c0.044-0.021,0.089-0.039,0.133-0.049c0.044-0.011,0.087-0.016,0.128-0.016c0.04,0,0.079,0.005,0.118,0.016
		c0.038,0.01,0.075,0.027,0.111,0.05c0.035,0.023,0.07,0.054,0.104,0.091c0.033,0.037,0.064,0.083,0.093,0.138
		c0.031-0.053,0.066-0.098,0.107-0.136c0.041-0.037,0.084-0.068,0.131-0.093c0.046-0.023,0.093-0.041,0.142-0.053
		c0.048-0.011,0.095-0.017,0.141-0.017c0.074,0,0.141,0.013,0.203,0.038c0.061,0.024,0.114,0.058,0.159,0.102
		s0.08,0.096,0.104,0.155c0.026,0.059,0.038,0.123,0.038,0.192v1.148H27.22v-1.08c0-0.067-0.009-0.123-0.029-0.167
		c-0.018-0.043-0.042-0.078-0.074-0.104c-0.03-0.025-0.064-0.044-0.102-0.055s-0.074-0.016-0.112-0.016
		c-0.05,0-0.099,0.01-0.149,0.032c-0.05,0.022-0.096,0.053-0.136,0.092c-0.04,0.039-0.071,0.085-0.097,0.138
		c-0.026,0.054-0.038,0.11-0.038,0.172v0.988h-0.236v-1.08c0-0.067-0.009-0.123-0.029-0.167c-0.019-0.043-0.043-0.078-0.073-0.104
		c-0.03-0.025-0.062-0.044-0.097-0.055c-0.035-0.011-0.069-0.016-0.102-0.016c-0.062,0-0.121,0.014-0.174,0.044
		c-0.054,0.027-0.101,0.064-0.141,0.108c-0.04,0.046-0.072,0.095-0.095,0.147c-0.023,0.054-0.035,0.104-0.035,0.152v0.97h-0.236
		V17.51L25.266,17.51L25.266,17.51z"/>
	<path fill="#FFFFFF" d="M27.811,17.51h0.234v0.243c0.028-0.044,0.061-0.084,0.098-0.119c0.038-0.034,0.078-0.063,0.121-0.088
		c0.043-0.022,0.086-0.042,0.131-0.053c0.044-0.013,0.087-0.018,0.13-0.018c0.109,0,0.205,0.021,0.291,0.065
		c0.085,0.043,0.158,0.103,0.216,0.178c0.059,0.075,0.104,0.163,0.134,0.264c0.031,0.102,0.046,0.209,0.046,0.324
		s-0.016,0.225-0.044,0.325c-0.031,0.103-0.075,0.191-0.133,0.267c-0.059,0.075-0.13,0.135-0.215,0.179
		c-0.084,0.044-0.181,0.065-0.289,0.065c-0.041,0-0.084-0.006-0.13-0.018c-0.044-0.012-0.089-0.028-0.132-0.052
		c-0.043-0.021-0.083-0.051-0.122-0.084c-0.039-0.034-0.073-0.074-0.103-0.117v0.901h-0.234V17.51L27.811,17.51L27.811,17.51z
		 M28.045,18.332c0.003,0.083,0.016,0.161,0.039,0.233c0.023,0.074,0.056,0.138,0.097,0.192c0.041,0.053,0.089,0.096,0.146,0.128
		c0.056,0.03,0.118,0.047,0.187,0.047c0.07,0,0.132-0.017,0.188-0.049c0.058-0.033,0.105-0.077,0.146-0.134s0.071-0.123,0.093-0.199
		c0.021-0.076,0.032-0.157,0.032-0.244c0-0.086-0.01-0.167-0.032-0.243c-0.022-0.075-0.053-0.141-0.093-0.198
		c-0.04-0.055-0.088-0.1-0.146-0.132c-0.056-0.033-0.119-0.049-0.188-0.049c-0.069,0-0.133,0.016-0.19,0.049
		c-0.057,0.032-0.107,0.077-0.148,0.132c-0.042,0.058-0.074,0.123-0.096,0.198c-0.023,0.076-0.035,0.157-0.035,0.243V18.332
		L28.045,18.332z"/>
	<path fill="#FFFFFF" d="M29.596,17.94c0.005-0.079,0.026-0.147,0.064-0.205c0.039-0.058,0.088-0.105,0.148-0.144
		c0.059-0.037,0.125-0.065,0.197-0.084c0.072-0.018,0.144-0.027,0.217-0.027c0.078,0,0.155,0.01,0.23,0.026
		c0.072,0.018,0.139,0.046,0.197,0.083s0.104,0.087,0.141,0.146c0.032,0.062,0.051,0.134,0.051,0.22v0.845
		c0,0.017,0.003,0.033,0.009,0.049c0.007,0.018,0.015,0.033,0.025,0.046c0.011,0.014,0.023,0.023,0.038,0.032
		c0.013,0.007,0.029,0.012,0.043,0.012s0.023-0.001,0.037-0.005c0.012-0.002,0.025-0.006,0.041-0.011v0.193
		c-0.034,0.01-0.062,0.018-0.085,0.021c-0.023,0.005-0.051,0.007-0.078,0.007c-0.069,0-0.125-0.025-0.171-0.076
		c-0.043-0.05-0.068-0.128-0.076-0.233c-0.049,0.066-0.1,0.12-0.148,0.16c-0.049,0.041-0.099,0.072-0.147,0.095
		c-0.049,0.021-0.099,0.037-0.149,0.044c-0.049,0.007-0.1,0.011-0.152,0.011c-0.064,0-0.127-0.011-0.185-0.032
		c-0.058-0.021-0.108-0.051-0.15-0.09c-0.043-0.039-0.077-0.087-0.101-0.143c-0.025-0.056-0.037-0.118-0.037-0.187
		c0-0.067,0.015-0.127,0.044-0.176c0.03-0.048,0.069-0.09,0.119-0.125s0.106-0.063,0.169-0.088c0.063-0.025,0.127-0.046,0.191-0.064
		c0.066-0.02,0.129-0.038,0.193-0.054c0.063-0.018,0.119-0.036,0.168-0.058c0.049-0.021,0.09-0.045,0.119-0.072
		c0.03-0.028,0.045-0.063,0.045-0.102c0-0.094-0.035-0.161-0.102-0.203c-0.069-0.042-0.164-0.063-0.285-0.063
		c-0.047,0-0.093,0.006-0.137,0.015c-0.041,0.009-0.08,0.023-0.112,0.044c-0.03,0.02-0.058,0.046-0.081,0.077
		c-0.021,0.032-0.037,0.069-0.042,0.113L29.596,17.94L29.596,17.94z M30.604,18.208c-0.033,0.034-0.076,0.063-0.129,0.086
		c-0.053,0.024-0.109,0.044-0.169,0.063c-0.062,0.019-0.122,0.036-0.184,0.054c-0.062,0.016-0.116,0.037-0.167,0.061
		c-0.049,0.023-0.09,0.053-0.121,0.085c-0.03,0.034-0.045,0.075-0.045,0.126c0,0.047,0.008,0.086,0.023,0.117
		c0.016,0.033,0.037,0.059,0.063,0.08s0.057,0.036,0.089,0.046s0.067,0.015,0.101,0.015c0.1,0,0.195-0.03,0.288-0.09
		c0.095-0.059,0.179-0.15,0.251-0.274V18.208L30.604,18.208z"/>
	<path fill="#FFFFFF" d="M32.245,19.113v-1.032c0-0.049-0.002-0.1-0.007-0.15c-0.006-0.05-0.019-0.097-0.037-0.139
		c-0.018-0.042-0.043-0.076-0.076-0.104c-0.034-0.026-0.078-0.04-0.133-0.04c-0.052,0-0.1,0.015-0.143,0.044
		c-0.042,0.028-0.077,0.068-0.105,0.12c-0.029,0.05-0.051,0.107-0.069,0.173c-0.015,0.065-0.023,0.135-0.023,0.205v0.923h-0.212
		v-1.196c0-0.035,0-0.073-0.002-0.112s-0.002-0.078-0.004-0.116c-0.002-0.037-0.002-0.071-0.004-0.104
		c0-0.03-0.002-0.056-0.004-0.072h0.207c0.004,0.042,0.008,0.091,0.01,0.148c0.002,0.059,0.002,0.113,0.002,0.165h0.007
		c0.03-0.108,0.08-0.195,0.148-0.263c0.069-0.069,0.154-0.102,0.258-0.102c0.086,0,0.156,0.017,0.209,0.054s0.093,0.085,0.12,0.143
		c0.029,0.061,0.047,0.127,0.057,0.201c0.011,0.074,0.015,0.148,0.015,0.222v1.032H32.245L32.245,19.113L32.245,19.113z
		 M32.349,16.903c-0.006,0.105-0.029,0.185-0.069,0.237s-0.091,0.078-0.154,0.078c-0.032,0-0.065-0.004-0.094-0.016
		c-0.029-0.01-0.065-0.031-0.109-0.062c-0.049-0.032-0.084-0.053-0.104-0.063c-0.021-0.01-0.044-0.015-0.067-0.015
		c-0.034,0-0.058,0.014-0.074,0.042c-0.015,0.028-0.025,0.066-0.034,0.116h-0.12c0.007-0.097,0.028-0.176,0.069-0.236
		c0.037-0.06,0.089-0.09,0.154-0.09c0.038,0,0.07,0.007,0.098,0.018c0.027,0.012,0.062,0.032,0.105,0.06
		c0.049,0.033,0.083,0.054,0.105,0.063c0.021,0.01,0.045,0.015,0.068,0.015c0.033,0,0.059-0.012,0.073-0.034
		c0.013-0.022,0.025-0.061,0.032-0.114H32.349L32.349,16.903L32.349,16.903z"/>
	<path fill="#FFFFFF" d="M33.12,17.277h-0.182l0.291-0.465h0.232L33.12,17.277z M32.942,19.113v-1.601h0.213v1.601H32.942z"/>
	<path fill="#FFFFFF" d="M33.647,17.94c0.003-0.079,0.025-0.147,0.065-0.205c0.038-0.058,0.087-0.105,0.146-0.144
		c0.061-0.037,0.126-0.065,0.196-0.084c0.074-0.018,0.146-0.027,0.216-0.027c0.08,0,0.156,0.01,0.231,0.026
		c0.074,0.018,0.142,0.046,0.197,0.083c0.059,0.037,0.105,0.087,0.14,0.146c0.035,0.062,0.053,0.134,0.053,0.22v0.845
		c0,0.017,0.002,0.033,0.01,0.049c0.005,0.018,0.015,0.033,0.025,0.046c0.009,0.014,0.021,0.023,0.036,0.032
		c0.015,0.007,0.029,0.012,0.045,0.012c0.012,0,0.024-0.001,0.037-0.005c0.011-0.002,0.025-0.006,0.04-0.011v0.193
		c-0.033,0.01-0.063,0.018-0.086,0.021c-0.023,0.005-0.049,0.007-0.078,0.007c-0.069,0-0.123-0.025-0.169-0.076
		c-0.045-0.05-0.07-0.128-0.076-0.233c-0.051,0.066-0.102,0.12-0.15,0.16c-0.049,0.041-0.099,0.072-0.147,0.095
		c-0.049,0.021-0.098,0.037-0.147,0.044c-0.051,0.007-0.102,0.011-0.152,0.011c-0.067,0-0.129-0.011-0.187-0.032
		c-0.057-0.021-0.107-0.051-0.149-0.09c-0.043-0.039-0.076-0.087-0.102-0.143s-0.036-0.118-0.036-0.187
		c0-0.067,0.015-0.127,0.043-0.176c0.031-0.048,0.071-0.09,0.12-0.125s0.105-0.063,0.169-0.088c0.063-0.025,0.127-0.046,0.192-0.064
		c0.063-0.02,0.129-0.038,0.191-0.054c0.063-0.018,0.119-0.036,0.169-0.058c0.049-0.021,0.089-0.045,0.119-0.072
		c0.029-0.028,0.046-0.063,0.046-0.102c0-0.094-0.035-0.161-0.104-0.203c-0.069-0.042-0.164-0.063-0.285-0.063
		c-0.048,0-0.093,0.006-0.135,0.015c-0.043,0.009-0.08,0.023-0.112,0.044c-0.033,0.02-0.06,0.046-0.082,0.077
		c-0.021,0.032-0.036,0.069-0.043,0.113L33.647,17.94L33.647,17.94z M34.653,18.208c-0.033,0.034-0.074,0.063-0.127,0.086
		c-0.053,0.024-0.111,0.044-0.171,0.063s-0.122,0.036-0.184,0.054c-0.06,0.016-0.116,0.037-0.165,0.061s-0.091,0.053-0.122,0.085
		c-0.03,0.034-0.047,0.075-0.047,0.126c0,0.047,0.009,0.086,0.025,0.117c0.015,0.033,0.036,0.059,0.062,0.08
		c0.027,0.021,0.057,0.036,0.089,0.046c0.035,0.01,0.067,0.015,0.101,0.015c0.1,0,0.195-0.03,0.29-0.09
		c0.095-0.059,0.177-0.15,0.249-0.274V18.208L34.653,18.208z"/>
	<path fill="#FFFFFF" d="M37.744,19.113H37.51v-0.241c-0.056,0.092-0.123,0.161-0.203,0.208s-0.162,0.07-0.245,0.07
		c-0.111,0-0.207-0.022-0.289-0.066c-0.083-0.042-0.152-0.103-0.209-0.178c-0.056-0.074-0.1-0.162-0.129-0.264
		c-0.027-0.103-0.043-0.21-0.043-0.326c0-0.115,0.015-0.224,0.043-0.325c0.027-0.102,0.069-0.19,0.126-0.267
		c0.054-0.075,0.123-0.135,0.207-0.179c0.081-0.043,0.178-0.065,0.286-0.065c0.04,0,0.08,0.008,0.122,0.02
		c0.04,0.015,0.082,0.032,0.122,0.055c0.04,0.023,0.078,0.051,0.114,0.083s0.068,0.067,0.098,0.104v-0.874h0.234V19.113
		L37.744,19.113L37.744,19.113L37.744,19.113z M37.51,18.292c-0.002-0.084-0.013-0.162-0.032-0.234
		c-0.022-0.073-0.051-0.137-0.088-0.191c-0.038-0.054-0.083-0.096-0.138-0.129c-0.053-0.03-0.114-0.046-0.182-0.046
		c-0.069,0-0.133,0.016-0.187,0.048c-0.055,0.033-0.101,0.077-0.137,0.135c-0.038,0.057-0.067,0.122-0.087,0.199
		c-0.021,0.077-0.029,0.157-0.029,0.243s0.009,0.168,0.029,0.243c0.02,0.075,0.049,0.142,0.087,0.198
		c0.036,0.055,0.082,0.1,0.137,0.132c0.054,0.033,0.117,0.05,0.187,0.05c0.071,0,0.133-0.017,0.188-0.05
		c0.054-0.032,0.102-0.077,0.138-0.132c0.038-0.057,0.065-0.123,0.085-0.198c0.021-0.075,0.029-0.157,0.029-0.243V18.292
		L37.51,18.292z"/>
	<path fill="#FFFFFF" d="M38.336,18.356c0,0.074,0.013,0.146,0.038,0.217c0.025,0.069,0.061,0.133,0.104,0.187
		c0.044,0.055,0.097,0.098,0.154,0.13c0.059,0.033,0.122,0.05,0.191,0.05c0.23,0,0.383-0.107,0.457-0.322h0.217
		c-0.017,0.085-0.048,0.159-0.091,0.225c-0.044,0.065-0.095,0.121-0.156,0.165c-0.061,0.046-0.127,0.079-0.2,0.103
		c-0.072,0.024-0.148,0.036-0.227,0.036c-0.113,0-0.215-0.023-0.306-0.069s-0.169-0.109-0.232-0.188s-0.112-0.168-0.146-0.271
		c-0.035-0.104-0.051-0.213-0.051-0.329c0-0.107,0.016-0.21,0.051-0.307c0.034-0.099,0.083-0.185,0.146-0.258
		c0.063-0.075,0.14-0.133,0.23-0.178c0.09-0.042,0.191-0.065,0.304-0.065c0.109,0,0.207,0.021,0.294,0.061
		c0.088,0.039,0.164,0.093,0.224,0.163c0.062,0.069,0.109,0.15,0.142,0.247c0.034,0.096,0.051,0.199,0.051,0.31v0.096H38.336
		L38.336,18.356z M39.284,18.171c-0.002-0.067-0.015-0.13-0.036-0.188c-0.023-0.06-0.055-0.109-0.097-0.153
		c-0.041-0.043-0.093-0.076-0.15-0.101c-0.059-0.025-0.123-0.037-0.198-0.037c-0.065,0-0.127,0.013-0.184,0.038
		c-0.056,0.026-0.104,0.062-0.146,0.107c-0.042,0.044-0.074,0.095-0.1,0.154c-0.024,0.056-0.037,0.117-0.037,0.18H39.284
		L39.284,18.171z"/>
	<path fill="#FFFFFF" d="M41.084,18.418c0.004,0.079,0.021,0.152,0.053,0.22c0.031,0.066,0.072,0.124,0.123,0.173
		s0.111,0.088,0.182,0.114c0.069,0.027,0.146,0.041,0.231,0.041c0.074,0,0.145-0.008,0.214-0.024
		c0.069-0.016,0.129-0.042,0.18-0.078c0.053-0.036,0.095-0.081,0.125-0.139c0.031-0.057,0.046-0.126,0.046-0.208
		c0-0.066-0.017-0.122-0.049-0.168c-0.035-0.046-0.078-0.087-0.133-0.12c-0.055-0.035-0.116-0.064-0.188-0.089
		c-0.068-0.023-0.14-0.047-0.212-0.068c-0.089-0.026-0.178-0.056-0.269-0.089c-0.09-0.033-0.171-0.074-0.242-0.124
		c-0.072-0.051-0.131-0.113-0.176-0.188c-0.046-0.076-0.069-0.168-0.069-0.279c0-0.093,0.021-0.175,0.055-0.246
		c0.038-0.07,0.089-0.131,0.152-0.178c0.067-0.049,0.146-0.085,0.236-0.11c0.091-0.024,0.19-0.037,0.3-0.037
		c0.098,0,0.184,0.01,0.258,0.029s0.14,0.046,0.196,0.079c0.056,0.032,0.104,0.071,0.142,0.115s0.068,0.09,0.095,0.139
		c0.023,0.051,0.043,0.101,0.054,0.153c0.013,0.052,0.021,0.102,0.023,0.149h-0.245c-0.005-0.074-0.023-0.14-0.053-0.197
		c-0.028-0.056-0.066-0.104-0.114-0.142c-0.047-0.039-0.102-0.068-0.161-0.087c-0.061-0.021-0.126-0.029-0.194-0.029
		c-0.062,0-0.124,0.007-0.184,0.02c-0.06,0.012-0.114,0.033-0.162,0.062c-0.047,0.029-0.085,0.066-0.114,0.112
		c-0.028,0.046-0.045,0.102-0.045,0.168c0,0.068,0.018,0.126,0.051,0.174c0.032,0.048,0.076,0.089,0.133,0.122
		c0.054,0.034,0.118,0.063,0.188,0.09c0.071,0.024,0.144,0.05,0.22,0.072c0.091,0.028,0.18,0.057,0.269,0.09
		c0.091,0.032,0.169,0.073,0.24,0.123c0.07,0.05,0.127,0.111,0.171,0.184c0.043,0.073,0.065,0.164,0.065,0.271
		c0,0.11-0.021,0.205-0.061,0.288s-0.095,0.151-0.167,0.207c-0.07,0.057-0.156,0.097-0.254,0.125
		c-0.099,0.028-0.205,0.042-0.321,0.042c-0.105,0-0.207-0.018-0.308-0.053c-0.098-0.035-0.187-0.086-0.263-0.152
		c-0.078-0.066-0.141-0.146-0.189-0.24c-0.047-0.093-0.074-0.199-0.076-0.315H41.084L41.084,18.418z"/>
	<path fill="#FFFFFF" d="M43.063,18.356c0.002,0.074,0.015,0.146,0.04,0.217c0.025,0.069,0.06,0.133,0.104,0.187
		c0.044,0.055,0.095,0.098,0.154,0.13c0.059,0.033,0.122,0.05,0.188,0.05c0.233,0,0.386-0.107,0.46-0.322h0.216
		c-0.018,0.085-0.049,0.159-0.093,0.225c-0.041,0.065-0.094,0.121-0.154,0.165c-0.06,0.046-0.127,0.079-0.199,0.103
		c-0.073,0.024-0.149,0.036-0.229,0.036c-0.11,0-0.212-0.023-0.303-0.069s-0.169-0.109-0.232-0.188s-0.112-0.168-0.147-0.271
		c-0.034-0.104-0.053-0.213-0.053-0.329c0-0.107,0.019-0.21,0.051-0.307c0.035-0.099,0.084-0.185,0.147-0.258
		c0.063-0.075,0.14-0.133,0.23-0.178c0.091-0.042,0.192-0.065,0.306-0.065c0.108,0,0.205,0.021,0.294,0.061
		c0.087,0.039,0.161,0.093,0.224,0.163c0.062,0.069,0.108,0.15,0.142,0.247c0.032,0.096,0.049,0.199,0.049,0.31v0.096H43.063
		L43.063,18.356z M44.014,18.171c-0.002-0.067-0.015-0.13-0.037-0.188c-0.023-0.06-0.056-0.109-0.098-0.153
		c-0.04-0.043-0.091-0.076-0.148-0.101c-0.059-0.025-0.126-0.037-0.198-0.037c-0.067,0-0.127,0.013-0.184,0.038
		c-0.057,0.026-0.105,0.062-0.147,0.107c-0.043,0.044-0.076,0.095-0.1,0.154c-0.025,0.056-0.038,0.117-0.038,0.18H44.014
		L44.014,18.171z"/>
	<path fill="#FFFFFF" d="M45.993,19.153c0,0.11-0.021,0.207-0.059,0.292c-0.036,0.084-0.087,0.154-0.15,0.211
		s-0.137,0.1-0.216,0.128c-0.082,0.029-0.168,0.044-0.253,0.044c-0.076,0-0.147-0.009-0.214-0.028
		c-0.065-0.019-0.128-0.049-0.182-0.089c-0.057-0.039-0.105-0.09-0.149-0.151c-0.043-0.062-0.078-0.135-0.108-0.22h0.237
		c0.046,0.097,0.101,0.168,0.167,0.212c0.067,0.044,0.151,0.064,0.249,0.064c0.059,0,0.116-0.011,0.169-0.033s0.1-0.054,0.14-0.094
		s0.071-0.088,0.095-0.143c0.021-0.056,0.034-0.115,0.034-0.181v-0.28c-0.056,0.088-0.123,0.153-0.203,0.197
		c-0.078,0.045-0.16,0.067-0.243,0.067c-0.109,0-0.207-0.022-0.295-0.066c-0.085-0.044-0.159-0.104-0.221-0.181
		c-0.063-0.076-0.109-0.165-0.142-0.267c-0.033-0.102-0.048-0.211-0.048-0.326s0.015-0.225,0.048-0.325
		c0.034-0.101,0.079-0.188,0.14-0.262c0.06-0.076,0.131-0.134,0.216-0.178c0.084-0.042,0.176-0.064,0.279-0.064
		c0.037,0,0.075,0.004,0.115,0.012c0.04,0.009,0.081,0.022,0.121,0.041c0.042,0.021,0.082,0.047,0.122,0.08
		c0.038,0.033,0.076,0.075,0.11,0.126v-0.23h0.24V19.153L45.993,19.153L45.993,19.153L45.993,19.153z M45.753,18.292
		c-0.002-0.084-0.013-0.162-0.032-0.234c-0.021-0.073-0.049-0.137-0.086-0.191c-0.036-0.054-0.081-0.096-0.136-0.129
		c-0.053-0.03-0.114-0.046-0.18-0.046c-0.071,0-0.135,0.016-0.194,0.047c-0.059,0.033-0.109,0.077-0.152,0.134
		c-0.042,0.056-0.076,0.121-0.101,0.196c-0.025,0.075-0.036,0.155-0.036,0.241c0,0.087,0.011,0.168,0.036,0.244
		c0.024,0.075,0.059,0.143,0.101,0.2c0.043,0.057,0.094,0.103,0.152,0.135c0.06,0.034,0.123,0.051,0.194,0.051
		c0.068,0,0.131-0.017,0.185-0.05c0.053-0.032,0.099-0.077,0.135-0.133c0.038-0.057,0.065-0.122,0.086-0.198
		c0.018-0.075,0.028-0.156,0.028-0.242V18.292L45.753,18.292z"/>
	<path fill="#FFFFFF" d="M47.616,19.086h-0.235v-0.243c-0.082,0.096-0.173,0.164-0.271,0.208c-0.096,0.042-0.195,0.063-0.298,0.063
		c-0.074,0-0.142-0.01-0.201-0.032s-0.109-0.055-0.15-0.097c-0.042-0.042-0.073-0.093-0.095-0.151s-0.034-0.125-0.034-0.2V17.48
		h0.237v1.123c0,0.055,0.008,0.103,0.021,0.141c0.013,0.037,0.032,0.067,0.058,0.092c0.025,0.025,0.057,0.042,0.093,0.053
		s0.076,0.016,0.122,0.016c0.07,0,0.138-0.013,0.201-0.039c0.063-0.025,0.118-0.06,0.165-0.102c0.048-0.043,0.086-0.092,0.113-0.146
		c0.027-0.056,0.04-0.113,0.04-0.171V17.48h0.235V19.086L47.616,19.086z"/>
	<path fill="#FFFFFF" d="M47.954,17.51h0.236l-0.011,0.246c0.051-0.09,0.108-0.157,0.176-0.204c0.067-0.048,0.147-0.07,0.238-0.07
		c0.017,0,0.034,0.002,0.056,0.005c0.021,0.003,0.038,0.008,0.053,0.014v0.242c-0.049-0.018-0.089-0.026-0.116-0.026
		c-0.062,0-0.118,0.013-0.167,0.035c-0.049,0.024-0.091,0.056-0.125,0.096c-0.033,0.039-0.06,0.084-0.078,0.137
		c-0.017,0.052-0.025,0.106-0.025,0.163v0.968h-0.236V17.51L47.954,17.51z"/>
	<path fill="#FFFFFF" d="M48.959,18.313c0-0.114,0.016-0.223,0.049-0.322c0.03-0.102,0.078-0.19,0.14-0.267
		c0.062-0.075,0.136-0.134,0.227-0.179c0.091-0.042,0.194-0.064,0.311-0.064s0.22,0.022,0.313,0.064
		c0.091,0.045,0.169,0.104,0.231,0.179c0.062,0.076,0.108,0.165,0.142,0.267c0.032,0.1,0.049,0.208,0.049,0.322
		s-0.017,0.222-0.049,0.323c-0.033,0.101-0.08,0.188-0.142,0.263c-0.063,0.074-0.141,0.134-0.231,0.178s-0.196,0.064-0.313,0.064
		s-0.22-0.021-0.311-0.064s-0.165-0.104-0.227-0.178s-0.109-0.162-0.14-0.263C48.975,18.535,48.959,18.428,48.959,18.313z
		 M49.194,18.313c0,0.084,0.011,0.165,0.033,0.241c0.021,0.075,0.055,0.141,0.098,0.196c0.042,0.057,0.095,0.101,0.156,0.133
		c0.061,0.032,0.127,0.05,0.203,0.05c0.077,0,0.146-0.018,0.206-0.05c0.062-0.033,0.112-0.077,0.154-0.133
		c0.043-0.056,0.076-0.121,0.1-0.196c0.021-0.076,0.034-0.157,0.034-0.241c0-0.085-0.013-0.165-0.034-0.24
		c-0.023-0.077-0.057-0.143-0.1-0.199c-0.042-0.058-0.093-0.102-0.154-0.135c-0.063-0.032-0.129-0.049-0.206-0.049
		c-0.076,0-0.143,0.017-0.203,0.049c-0.062,0.033-0.114,0.077-0.156,0.135c-0.043,0.057-0.076,0.122-0.098,0.199
		C49.205,18.148,49.194,18.229,49.194,18.313z"/>
	<path fill="#FFFFFF" d="M51.004,18.617c0,0.06,0.011,0.109,0.03,0.149c0.019,0.042,0.046,0.074,0.078,0.1
		c0.031,0.025,0.071,0.044,0.114,0.056c0.046,0.012,0.095,0.018,0.147,0.018c0.042,0,0.087-0.005,0.135-0.012
		c0.045-0.009,0.089-0.022,0.129-0.04c0.04-0.02,0.072-0.045,0.098-0.077c0.025-0.033,0.038-0.075,0.038-0.126
		c0-0.044-0.015-0.083-0.042-0.116c-0.027-0.032-0.063-0.061-0.106-0.085c-0.046-0.025-0.097-0.047-0.154-0.066
		c-0.059-0.02-0.117-0.04-0.177-0.062c-0.06-0.022-0.118-0.046-0.176-0.07c-0.057-0.025-0.109-0.056-0.152-0.091
		c-0.046-0.034-0.082-0.077-0.109-0.124c-0.027-0.048-0.042-0.105-0.042-0.172c0-0.071,0.017-0.133,0.048-0.186
		c0.03-0.053,0.072-0.095,0.123-0.13c0.053-0.033,0.11-0.06,0.178-0.076s0.139-0.025,0.211-0.025c0.082,0,0.158,0.009,0.229,0.025
		c0.071,0.018,0.133,0.045,0.186,0.08s0.095,0.081,0.125,0.137c0.031,0.054,0.05,0.12,0.051,0.196c-0.02,0-0.041-0.002-0.065-0.002
		c-0.025-0.001-0.045-0.001-0.06-0.001h-0.114c-0.006-0.044-0.019-0.08-0.038-0.108c-0.022-0.029-0.046-0.053-0.076-0.07
		c-0.033-0.017-0.067-0.028-0.109-0.037c-0.04-0.007-0.082-0.01-0.127-0.01c-0.105,0-0.184,0.019-0.238,0.058
		c-0.054,0.038-0.081,0.088-0.081,0.151c0,0.042,0.013,0.078,0.04,0.108c0.026,0.032,0.063,0.06,0.108,0.084
		c0.046,0.023,0.097,0.046,0.154,0.067c0.057,0.021,0.114,0.042,0.177,0.063c0.06,0.022,0.118,0.045,0.176,0.07
		s0.109,0.055,0.152,0.089c0.046,0.033,0.082,0.072,0.109,0.117s0.042,0.098,0.042,0.158c0,0.087-0.019,0.161-0.053,0.224
		c-0.035,0.061-0.08,0.111-0.141,0.15c-0.058,0.04-0.125,0.068-0.203,0.087c-0.078,0.018-0.158,0.026-0.243,0.026
		c-0.084,0-0.16-0.011-0.234-0.033c-0.072-0.021-0.138-0.055-0.194-0.098c-0.055-0.045-0.1-0.101-0.133-0.165
		c-0.034-0.066-0.053-0.144-0.056-0.232H51.004L51.004,18.617L51.004,18.617z"/>
</g>
</svg>
